%YAML 1.1
%TAG !u! tag:unity3d.com,2011:
--- !u!1001 &100100000
Prefab:
  m_ObjectHideFlags: 1
  serializedVersion: 2
  m_Modification:
    m_TransformParent: {fileID: 0}
    m_Modifications: []
    m_RemovedComponents: []
  m_ParentPrefab: {fileID: 0}
  m_RootGameObject: {fileID: 1641383051935294}
  m_IsPrefabParent: 1
--- !u!1 &1641383051935294
GameObject:
  m_ObjectHideFlags: 0
  m_PrefabParentObject: {fileID: 0}
  m_PrefabInternal: {fileID: 100100000}
  serializedVersion: 5
  m_Component:
  - component: {fileID: 4896436438958084}
  - component: {fileID: 114257891558606392}
  m_Layer: 0
  m_Name: Wave
  m_TagString: Untagged
  m_Icon: {fileID: 0}
  m_NavMeshLayer: 0
  m_StaticEditorFlags: 0
  m_IsActive: 1
--- !u!4 &4896436438958084
Transform:
  m_ObjectHideFlags: 1
  m_PrefabParentObject: {fileID: 0}
  m_PrefabInternal: {fileID: 100100000}
  m_GameObject: {fileID: 1641383051935294}
  m_LocalRotation: {x: 0, y: 0, z: 0, w: 1}
  m_LocalPosition: {x: 0, y: 0, z: 0}
  m_LocalScale: {x: 1, y: 1, z: 1}
  m_Children: []
  m_Father: {fileID: 0}
  m_RootOrder: 0
  m_LocalEulerAnglesHint: {x: 0, y: 0, z: 0}
--- !u!114 &114257891558606392
MonoBehaviour:
  m_ObjectHideFlags: 1
  m_PrefabParentObject: {fileID: 0}
  m_PrefabInternal: {fileID: 100100000}
  m_GameObject: {fileID: 1641383051935294}
  m_Enabled: 1
  m_EditorHideFlags: 0
  m_Script: {fileID: 11500000, guid: b8311e2465a022a42a870ea884ac480e, type: 3}
  m_Name: 
  m_EditorClassIdentifier: 
  xCurve:
    serializedVersion: 2
    m_Curve:
    - serializedVersion: 2
      time: 0
      value: 0.012500048
      inSlope: 0
      outSlope: 0
      tangentMode: 0
    - serializedVersion: 2
      time: 0.5
      value: 1
      inSlope: 0
      outSlope: 0
      tangentMode: 0
    - serializedVersion: 2
      time: 1
      value: 0.012500048
      inSlope: 0
      outSlope: 0
      tangentMode: 0
    m_PreInfinity: 2
    m_PostInfinity: 2
    m_RotationOrder: 0
  zCurve:
    serializedVersion: 2
    m_Curve:
    - serializedVersion: 2
      time: 0
      value: -0.0062500015
      inSlope: 0
      outSlope: 0
      tangentMode: 136
    - serializedVersion: 2
      time: 0.26498395
      value: 0.6233436
      inSlope: 2.078265
      outSlope: 2.078265
      tangentMode: 0
    - serializedVersion: 2
      time: 0.5565891
      value: 0.83775747
      inSlope: -0.73372036
      outSlope: -0.73372036
      tangentMode: 0
    - serializedVersion: 2
      time: 0.6041667
      value: 0.5874999
      inSlope: -3.6000004
      outSlope: -3.6000004
      tangentMode: 0
    - serializedVersion: 2
      time: 1
      value: -0.0062500015
      inSlope: 0
      outSlope: 0
      tangentMode: 136
    m_PreInfinity: 2
    m_PostInfinity: 2
    m_RotationOrder: 0
  breakerCurve:
    serializedVersion: 2
    m_Curve: []
    m_PreInfinity: 2
    m_PostInfinity: 2
    m_RotationOrder: 4
  width: 27.3
  length: 13.8
  height: 5
  speed: 6
  startDistance: 40
